Army two
CommanderUnit,ComanderBoss,300
CommanderUnit,ComanderBoss,300
CommanderUnit,ComanderBoss,300
CommanderUnit,ComanderBoss,300
CommanderUnit,ComanderBoss,300
CommanderUnit,ComanderBoss,300
CommanderUnit,ComanderBoss,300
CommanderUnit,ComanderBoss,300
CommanderUnit,ComanderBoss,300
CommanderUnit,ComanderBoss,300
CommanderUnit,ComanderBoss,300
CommanderUnit,ComanderBoss,300
CommanderUnit,ComanderBoss,300
CommanderUnit,ComanderBoss,300
CommanderUnit,ComanderBoss,300
CommanderUnit,ComanderBoss,300
CommanderUnit,ComanderBoss,300
CommanderUnit,ComanderBoss,300
CommanderUnit,ComanderBoss,300
CommanderUnit,ComanderBoss,300
CommanderUnit,ComanderBoss,300
CommanderUnit,ComanderBoss,300
CommanderUnit,ComanderBoss,300
CommanderUnit,ComanderBoss,300
CommanderUnit,ComanderBoss,300
CommanderUnit,ComanderBoss,300
CommanderUnit,ComanderBoss,300
CommanderUnit,ComanderBoss,300
CommanderUnit,ComanderBoss,300
CommanderUnit,ComanderBoss,300
CommanderUnit,ComanderBoss,300
CommanderUnit,ComanderBoss,300
CommanderUnit,ComanderBoss,300
CommanderUnit,ComanderBoss,300
CommanderUnit,ComanderBoss,300
CommanderUnit,ComanderBoss,300
CommanderUnit,ComanderBoss,300
CommanderUnit,ComanderBoss,300
CommanderUnit,ComanderBoss,300
CommanderUnit,ComanderBoss,300
CommanderUnit,ComanderBoss,300
CommanderUnit,ComanderBoss,300
CommanderUnit,ComanderBoss,300
CommanderUnit,ComanderBoss,300
CommanderUnit,ComanderBoss,300
CommanderUnit,ComanderBoss,300
CommanderUnit,ComanderBoss,300
CommanderUnit,ComanderBoss,300
CommanderUnit,ComanderBoss,300
CommanderUnit,ComanderBoss,300
CommanderUnit,ComanderBoss,300
CommanderUnit,ComanderBoss,300
CommanderUnit,ComanderBoss,300
CommanderUnit,ComanderBoss,300
CommanderUnit,ComanderBoss,300
CommanderUnit,ComanderBoss,300
CommanderUnit,ComanderBoss,300
CommanderUnit,ComanderBoss,300
CommanderUnit,ComanderBoss,300
CommanderUnit,ComanderBoss,300
CommanderUnit,ComanderBoss,300
CommanderUnit,ComanderBoss,300
CommanderUnit,ComanderBoss,300
CommanderUnit,ComanderBoss,300
CommanderUnit,ComanderBoss,300
CommanderUnit,ComanderBoss,300
CommanderUnit,ComanderBoss,300
CommanderUnit,ComanderBoss,300
CommanderUnit,ComanderBoss,300
CommanderUnit,ComanderBoss,300
CommanderUnit,ComanderBoss,300
CommanderUnit,ComanderBoss,300
CommanderUnit,ComanderBoss,300
CommanderUnit,ComanderBoss,300
CommanderUnit,ComanderBoss,300
CommanderUnit,ComanderBoss,300
CommanderUnit,ComanderBoss,300
CommanderUnit,ComanderBoss,300
CommanderUnit,ComanderBoss,300
CommanderUnit,ComanderBoss,300
CommanderUnit,ComanderBoss,300
CommanderUnit,ComanderBoss,300
CommanderUnit,ComanderBoss,300
CommanderUnit,ComanderBoss,300
CommanderUnit,ComanderBoss,300
CommanderUnit,ComanderBoss,300
CommanderUnit,ComanderBoss,300
CommanderUnit,ComanderBoss,300
CommanderUnit,ComanderBoss,300
CommanderUnit,ComanderBoss,300
CommanderUnit,ComanderBoss,300
CommanderUnit,ComanderBoss,300
CommanderUnit,ComanderBoss,300
CommanderUnit,ComanderBoss,300
CommanderUnit,ComanderBoss,300
CommanderUnit,ComanderBoss,300
CommanderUnit,ComanderBoss,300
CommanderUnit,ComanderBoss,300
CommanderUnit,ComanderBoss,300
CommanderUnit,ComanderBoss,300
CommanderUnit,ComanderBoss,300
CommanderUnit,ComanderBoss,300
CommanderUnit,ComanderBoss,300
CommanderUnit,ComanderBoss,300
CommanderUnit,ComanderBoss,300
CommanderUnit,ComanderBoss,300
CommanderUnit,ComanderBoss,300
CommanderUnit,ComanderBoss,300
CommanderUnit,ComanderBoss,300
CommanderUnit,ComanderBoss,300
CommanderUnit,ComanderBoss,300
CommanderUnit,ComanderBoss,300
CommanderUnit,ComanderBoss,300
CommanderUnit,ComanderBoss,300
CommanderUnit,ComanderBoss,300
CommanderUnit,ComanderBoss,300
CommanderUnit,ComanderBoss,300
CommanderUnit,ComanderBoss,300
CommanderUnit,ComanderBoss,300
CommanderUnit,ComanderBoss,300
CommanderUnit,ComanderBoss,300
CommanderUnit,ComanderBoss,300
CommanderUnit,ComanderBoss,300
CommanderUnit,ComanderBoss,300
CommanderUnit,ComanderBoss,300
CommanderUnit,ComanderBoss,300
CommanderUnit,ComanderBoss,300
CommanderUnit,ComanderBoss,300
CommanderUnit,ComanderBoss,300
CommanderUnit,ComanderBoss,300
CommanderUnit,ComanderBoss,300
CommanderUnit,ComanderBoss,300
CommanderUnit,ComanderBoss,300
CommanderUnit,ComanderBoss,300
CommanderUnit,ComanderBoss,300
CommanderUnit,ComanderBoss,300
CommanderUnit,ComanderBoss,300
CommanderUnit,ComanderBoss,300
CommanderUnit,ComanderBoss,300
CommanderUnit,ComanderBoss,300
CommanderUnit,ComanderBoss,300
CommanderUnit,ComanderBoss,300
CommanderUnit,ComanderBoss,300
CommanderUnit,ComanderBoss,300
CommanderUnit,ComanderBoss,300
CommanderUnit,ComanderBoss,300
CommanderUnit,ComanderBoss,300
CommanderUnit,ComanderBoss,300
CommanderUnit,ComanderBoss,300
CommanderUnit,ComanderBoss,300
CommanderUnit,ComanderBoss,300
CommanderUnit,ComanderBoss,300
CommanderUnit,ComanderBoss,300
CommanderUnit,ComanderBoss,300
CommanderUnit,ComanderBoss,300
CommanderUnit,ComanderBoss,300
CommanderUnit,ComanderBoss,300
CommanderUnit,ComanderBoss,300
CommanderUnit,ComanderBoss,300
CommanderUnit,ComanderBoss,300
CommanderUnit,ComanderBoss,300
CommanderUnit,ComanderBoss,300
CommanderUnit,ComanderBoss,300
CommanderUnit,ComanderBoss,300
CommanderUnit,ComanderBoss,300
CommanderUnit,ComanderBoss,300
CommanderUnit,ComanderBoss,300
CommanderUnit,ComanderBoss,300
CommanderUnit,ComanderBoss,300
CommanderUnit,ComanderBoss,300
CommanderUnit,ComanderBoss,300
CommanderUnit,ComanderBoss,300
CommanderUnit,ComanderBoss,300
CommanderUnit,ComanderBoss,300
CommanderUnit,ComanderBoss,300
CommanderUnit,ComanderBoss,300
CommanderUnit,ComanderBoss,300
CommanderUnit,ComanderBoss,300
CommanderUnit,ComanderBoss,300
CommanderUnit,ComanderBoss,300
CommanderUnit,ComanderBoss,300
CommanderUnit,ComanderBoss,300
CommanderUnit,ComanderBoss,300
CommanderUnit,ComanderBoss,300
CommanderUnit,ComanderBoss,300
CommanderUnit,ComanderBoss,300
CommanderUnit,ComanderBoss,300
CommanderUnit,ComanderBoss,300
CommanderUnit,ComanderBoss,300
CommanderUnit,ComanderBoss,300
CommanderUnit,ComanderBoss,300
CommanderUnit,ComanderBoss,300
CommanderUnit,ComanderBoss,300
CommanderUnit,ComanderBoss,300
CommanderUnit,ComanderBoss,300
CommanderUnit,ComanderBoss,300
CommanderUnit,ComanderBoss,300
CommanderUnit,ComanderBoss,300
CommanderUnit,ComanderBoss,300
CommanderUnit,ComanderBoss,300
CommanderUnit,ComanderBoss,300
CommanderUnit,ComanderBoss,300
CommanderUnit,ComanderBoss,300
CommanderUnit,ComanderBoss,300
CommanderUnit,ComanderBoss,300
CommanderUnit,ComanderBoss,300
CommanderUnit,ComanderBoss,300
CommanderUnit,ComanderBoss,300
CommanderUnit,ComanderBoss,300
CommanderUnit,ComanderBoss,300
CommanderUnit,ComanderBoss,300
CommanderUnit,ComanderBoss,300
CommanderUnit,ComanderBoss,300
CommanderUnit,ComanderBoss,300
CommanderUnit,ComanderBoss,300
CommanderUnit,ComanderBoss,300
CommanderUnit,ComanderBoss,300
CommanderUnit,ComanderBoss,300
CommanderUnit,ComanderBoss,300
CommanderUnit,ComanderBoss,300
CommanderUnit,ComanderBoss,300
CommanderUnit,ComanderBoss,300
CommanderUnit,ComanderBoss,300
CommanderUnit,ComanderBoss,300
CommanderUnit,ComanderBoss,300
CommanderUnit,ComanderBoss,300
CommanderUnit,ComanderBoss,300
CommanderUnit,ComanderBoss,300
CommanderUnit,ComanderBoss,300
CommanderUnit,ComanderBoss,300
CommanderUnit,ComanderBoss,300
CommanderUnit,ComanderBoss,300
CommanderUnit,ComanderBoss,300
CommanderUnit,ComanderBoss,300
CommanderUnit,ComanderBoss,300
CommanderUnit,ComanderBoss,300
CommanderUnit,ComanderBoss,300
CommanderUnit,ComanderBoss,300
CommanderUnit,ComanderBoss,300
CommanderUnit,ComanderBoss,300
CommanderUnit,ComanderBoss,300
CommanderUnit,ComanderBoss,300
CommanderUnit,ComanderBoss,300
CommanderUnit,ComanderBoss,300
CommanderUnit,ComanderBoss,300
CommanderUnit,ComanderBoss,300
CommanderUnit,ComanderBoss,300
CommanderUnit,ComanderBoss,300
CommanderUnit,ComanderBoss,300
CommanderUnit,ComanderBoss,300
CommanderUnit,ComanderBoss,300
CommanderUnit,ComanderBoss,300
CommanderUnit,ComanderBoss,300
CommanderUnit,ComanderBoss,300
CommanderUnit,ComanderBoss,300
CommanderUnit,ComanderBoss,300
CommanderUnit,ComanderBoss,300
CommanderUnit,ComanderBoss,300
CommanderUnit,ComanderBoss,300
CommanderUnit,ComanderBoss,300
CommanderUnit,ComanderBoss,300
CommanderUnit,ComanderBoss,300
CommanderUnit,ComanderBoss,300
CommanderUnit,ComanderBoss,300
CommanderUnit,ComanderBoss,300
CommanderUnit,ComanderBoss,300
CommanderUnit,ComanderBoss,300
CommanderUnit,ComanderBoss,300
CommanderUnit,ComanderBoss,300
CommanderUnit,ComanderBoss,300
CommanderUnit,ComanderBoss,300
CommanderUnit,ComanderBoss,300
CommanderUnit,ComanderBoss,300
CommanderUnit,ComanderBoss,300
CommanderUnit,ComanderBoss,300
CommanderUnit,ComanderBoss,300
CommanderUnit,ComanderBoss,300
CommanderUnit,ComanderBoss,300
CommanderUnit,ComanderBoss,300
CommanderUnit,ComanderBoss,300
CommanderUnit,ComanderBoss,300
CommanderUnit,ComanderBoss,300
CommanderUnit,ComanderBoss,300
CommanderUnit,ComanderBoss,300
CommanderUnit,ComanderBoss,300
CommanderUnit,ComanderBoss,300
CommanderUnit,ComanderBoss,300
CommanderUnit,ComanderBoss,300
CommanderUnit,ComanderBoss,300
CommanderUnit,ComanderBoss,300
CommanderUnit,ComanderBoss,300
CommanderUnit,ComanderBoss,300
CommanderUnit,ComanderBoss,300
CommanderUnit,ComanderBoss,300
CommanderUnit,ComanderBoss,300
CommanderUnit,ComanderBoss,300
CommanderUnit,ComanderBoss,300
CommanderUnit,ComanderBoss,300
CommanderUnit,ComanderBoss,300
CommanderUnit,ComanderBoss,300
CommanderUnit,ComanderBoss,300
CommanderUnit,ComanderBoss,300
CommanderUnit,ComanderBoss,300
CommanderUnit,ComanderBoss,300
CommanderUnit,ComanderBoss,300
CommanderUnit,ComanderBoss,300
CommanderUnit,ComanderBoss,300
CommanderUnit,ComanderBoss,300
CommanderUnit,ComanderBoss,300
CommanderUnit,ComanderBoss,300
CommanderUnit,ComanderBoss,300
CommanderUnit,ComanderBoss,300
CommanderUnit,ComanderBoss,300
CommanderUnit,ComanderBoss,300
CommanderUnit,ComanderBoss,300
CommanderUnit,ComanderBoss,300
CommanderUnit,ComanderBoss,300
CommanderUnit,ComanderBoss,300
CommanderUnit,ComanderBoss,300
CommanderUnit,ComanderBoss,300
CommanderUnit,ComanderBoss,300
CommanderUnit,ComanderBoss,300
CommanderUnit,ComanderBoss,300
CommanderUnit,ComanderBoss,300
CommanderUnit,ComanderBoss,300
CommanderUnit,ComanderBoss,300
CommanderUnit,ComanderBoss,300
CommanderUnit,ComanderBoss,300
CommanderUnit,ComanderBoss,300
CommanderUnit,ComanderBoss,300
CommanderUnit,ComanderBoss,300
CommanderUnit,ComanderBoss,300
CommanderUnit,ComanderBoss,300
CommanderUnit,ComanderBoss,300
CommanderUnit,ComanderBoss,300
CommanderUnit,ComanderBoss,300
CommanderUnit,ComanderBoss,300
CommanderUnit,ComanderBoss,300
CommanderUnit,ComanderBoss,300
CommanderUnit,ComanderBoss,300
CommanderUnit,ComanderBoss,300
CommanderUnit,ComanderBoss,300
CommanderUnit,ComanderBoss,300
CommanderUnit,ComanderBoss,300
CommanderUnit,ComanderBoss,300
CommanderUnit,ComanderBoss,300
CommanderUnit,ComanderBoss,300
CommanderUnit,ComanderBoss,300
CommanderUnit,ComanderBoss,300
CommanderUnit,ComanderBoss,300
CommanderUnit,ComanderBoss,300
CommanderUnit,ComanderBoss,300
CommanderUnit,ComanderBoss,300
CommanderUnit,ComanderBoss,300
CommanderUnit,ComanderBoss,300
CommanderUnit,ComanderBoss,300
CommanderUnit,ComanderBoss,300
CommanderUnit,ComanderBoss,300
CommanderUnit,ComanderBoss,300
CommanderUnit,ComanderBoss,300
CommanderUnit,ComanderBoss,300
CommanderUnit,ComanderBoss,300
CommanderUnit,ComanderBoss,300
CommanderUnit,ComanderBoss,300
CommanderUnit,ComanderBoss,300
CommanderUnit,ComanderBoss,300
CommanderUnit,ComanderBoss,300
CommanderUnit,ComanderBoss,300
CommanderUnit,ComanderBoss,300
CommanderUnit,ComanderBoss,300
CommanderUnit,ComanderBoss,300
CommanderUnit,ComanderBoss,300
CommanderUnit,ComanderBoss,300
CommanderUnit,ComanderBoss,300
CommanderUnit,ComanderBoss,300
CommanderUnit,ComanderBoss,300
CommanderUnit,ComanderBoss,300
CommanderUnit,ComanderBoss,300
CommanderUnit,ComanderBoss,300
CommanderUnit,ComanderBoss,300
CommanderUnit,ComanderBoss,300
CommanderUnit,ComanderBoss,300
CommanderUnit,ComanderBoss,300
CommanderUnit,ComanderBoss,300
CommanderUnit,ComanderBoss,300
CommanderUnit,ComanderBoss,300
CommanderUnit,ComanderBoss,300
CommanderUnit,ComanderBoss,300
CommanderUnit,ComanderBoss,300
CommanderUnit,ComanderBoss,300
CommanderUnit,ComanderBoss,300
CommanderUnit,ComanderBoss,300
CommanderUnit,ComanderBoss,300
CommanderUnit,ComanderBoss,300
CommanderUnit,ComanderBoss,300
CommanderUnit,ComanderBoss,300
CommanderUnit,ComanderBoss,300
CommanderUnit,ComanderBoss,300
CommanderUnit,ComanderBoss,300
CommanderUnit,ComanderBoss,300
CommanderUnit,ComanderBoss,300
CommanderUnit,ComanderBoss,300
CommanderUnit,ComanderBoss,300
CommanderUnit,ComanderBoss,300
CommanderUnit,ComanderBoss,300
CommanderUnit,ComanderBoss,300
CommanderUnit,ComanderBoss,300
CommanderUnit,ComanderBoss,300
CommanderUnit,ComanderBoss,300
CommanderUnit,ComanderBoss,300
CommanderUnit,ComanderBoss,300
CommanderUnit,ComanderBoss,300
CommanderUnit,ComanderBoss,300
CommanderUnit,ComanderBoss,300
CommanderUnit,ComanderBoss,300
CommanderUnit,ComanderBoss,300
CommanderUnit,ComanderBoss,300
CommanderUnit,ComanderBoss,300
CommanderUnit,ComanderBoss,300
CommanderUnit,ComanderBoss,300
CommanderUnit,ComanderBoss,300
CommanderUnit,ComanderBoss,300
CommanderUnit,ComanderBoss,300
CommanderUnit,ComanderBoss,300
CommanderUnit,ComanderBoss,300
CommanderUnit,ComanderBoss,300
CommanderUnit,ComanderBoss,300
CommanderUnit,ComanderBoss,300
CommanderUnit,ComanderBoss,300
CommanderUnit,ComanderBoss,300
CommanderUnit,ComanderBoss,300
CommanderUnit,ComanderBoss,300
CommanderUnit,ComanderBoss,300
CommanderUnit,ComanderBoss,300
CommanderUnit,ComanderBoss,300
CommanderUnit,ComanderBoss,300
CommanderUnit,ComanderBoss,300
CommanderUnit,ComanderBoss,300
CommanderUnit,ComanderBoss,300
CommanderUnit,ComanderBoss,300
CommanderUnit,ComanderBoss,300
CommanderUnit,ComanderBoss,300
CommanderUnit,ComanderBoss,300
CommanderUnit,ComanderBoss,300
CommanderUnit,ComanderBoss,300
CommanderUnit,ComanderBoss,300
CommanderUnit,ComanderBoss,300
CommanderUnit,ComanderBoss,300
CommanderUnit,ComanderBoss,300
CommanderUnit,ComanderBoss,300
CommanderUnit,ComanderBoss,300
CommanderUnit,ComanderBoss,300
CommanderUnit,ComanderBoss,300
CommanderUnit,ComanderBoss,300
CommanderUnit,ComanderBoss,300
CommanderUnit,ComanderBoss,300
CommanderUnit,ComanderBoss,300
CommanderUnit,ComanderBoss,300
CommanderUnit,ComanderBoss,300
CommanderUnit,ComanderBoss,300
CommanderUnit,ComanderBoss,300
CommanderUnit,ComanderBoss,300
CommanderUnit,ComanderBoss,300
CommanderUnit,ComanderBoss,300
CommanderUnit,ComanderBoss,300
CommanderUnit,ComanderBoss,300
CommanderUnit,ComanderBoss,300
CommanderUnit,ComanderBoss,300
CommanderUnit,ComanderBoss,300
CommanderUnit,ComanderBoss,300
CommanderUnit,ComanderBoss,300
CommanderUnit,ComanderBoss,300
CommanderUnit,ComanderBoss,300
CommanderUnit,ComanderBoss,300
CommanderUnit,ComanderBoss,300
CommanderUnit,ComanderBoss,300
CommanderUnit,ComanderBoss,300
CommanderUnit,ComanderBoss,300
CommanderUnit,ComanderBoss,300
CommanderUnit,ComanderBoss,300
CommanderUnit,ComanderBoss,300
CommanderUnit,ComanderBoss,300
CommanderUnit,ComanderBoss,300
CommanderUnit,ComanderBoss,300
CommanderUnit,ComanderBoss,300
CommanderUnit,ComanderBoss,300
CommanderUnit,ComanderBoss,300
CommanderUnit,ComanderBoss,300
CommanderUnit,ComanderBoss,300
CommanderUnit,ComanderBoss,300
CommanderUnit,ComanderBoss,300
CommanderUnit,ComanderBoss,300
CommanderUnit,ComanderBoss,300
CommanderUnit,ComanderBoss,300
CommanderUnit,ComanderBoss,300
CommanderUnit,ComanderBoss,300
CommanderUnit,ComanderBoss,300
CommanderUnit,ComanderBoss,300
CommanderUnit,ComanderBoss,300
CommanderUnit,ComanderBoss,300
CommanderUnit,ComanderBoss,300
CommanderUnit,ComanderBoss,300
CommanderUnit,ComanderBoss,300
CommanderUnit,ComanderBoss,300
CommanderUnit,ComanderBoss,300
CommanderUnit,ComanderBoss,300
CommanderUnit,ComanderBoss,300
CommanderUnit,ComanderBoss,300
CommanderUnit,ComanderBoss,300
CommanderUnit,ComanderBoss,300
CommanderUnit,ComanderBoss,300
CommanderUnit,ComanderBoss,300
CommanderUnit,ComanderBoss,300
CommanderUnit,ComanderBoss,300
CommanderUnit,ComanderBoss,300
CommanderUnit,ComanderBoss,300
CommanderUnit,ComanderBoss,300
CommanderUnit,ComanderBoss,300
CommanderUnit,ComanderBoss,300
CommanderUnit,ComanderBoss,300
CommanderUnit,ComanderBoss,300
CommanderUnit,ComanderBoss,300
CommanderUnit,ComanderBoss,300
CommanderUnit,ComanderBoss,300
CommanderUnit,ComanderBoss,300
CommanderUnit,ComanderBoss,300
CommanderUnit,ComanderBoss,300
CommanderUnit,ComanderBoss,300
CommanderUnit,ComanderBoss,300
CommanderUnit,ComanderBoss,300
CommanderUnit,ComanderBoss,300
CommanderUnit,ComanderBoss,300
CommanderUnit,ComanderBoss,300
CommanderUnit,ComanderBoss,300
CommanderUnit,ComanderBoss,300
CommanderUnit,ComanderBoss,300
CommanderUnit,ComanderBoss,300
CommanderUnit,ComanderBoss,300
CommanderUnit,ComanderBoss,300
CommanderUnit,ComanderBoss,300
CommanderUnit,ComanderBoss,300
CommanderUnit,ComanderBoss,300
CommanderUnit,ComanderBoss,300
CommanderUnit,ComanderBoss,300
CommanderUnit,ComanderBoss,300
CommanderUnit,ComanderBoss,300
CommanderUnit,ComanderBoss,300
CommanderUnit,ComanderBoss,300
CommanderUnit,ComanderBoss,300
CommanderUnit,ComanderBoss,300
CommanderUnit,ComanderBoss,300
CommanderUnit,ComanderBoss,300
CommanderUnit,ComanderBoss,300
CommanderUnit,ComanderBoss,300
CommanderUnit,ComanderBoss,300
CommanderUnit,ComanderBoss,300
CommanderUnit,ComanderBoss,300
CommanderUnit,ComanderBoss,300
CommanderUnit,ComanderBoss,300
CommanderUnit,ComanderBoss,300
CommanderUnit,ComanderBoss,300
CommanderUnit,ComanderBoss,300
CommanderUnit,ComanderBoss,300
CommanderUnit,ComanderBoss,300
CommanderUnit,ComanderBoss,300
CommanderUnit,ComanderBoss,300
CommanderUnit,ComanderBoss,300
CommanderUnit,ComanderBoss,300
CommanderUnit,ComanderBoss,300
CommanderUnit,ComanderBoss,300
CommanderUnit,ComanderBoss,300
CommanderUnit,ComanderBoss,300
CommanderUnit,ComanderBoss,300
CommanderUnit,ComanderBoss,300
CommanderUnit,ComanderBoss,300
CommanderUnit,ComanderBoss,300
CommanderUnit,ComanderBoss,300
CommanderUnit,ComanderBoss,300
CommanderUnit,ComanderBoss,300
CommanderUnit,ComanderBoss,300
CommanderUnit,ComanderBoss,300
CommanderUnit,ComanderBoss,300
CommanderUnit,ComanderBoss,300
CommanderUnit,ComanderBoss,300
CommanderUnit,ComanderBoss,300
CommanderUnit,ComanderBoss,300
CommanderUnit,ComanderBoss,300
CommanderUnit,ComanderBoss,300
CommanderUnit,ComanderBoss,300
CommanderUnit,ComanderBoss,300
CommanderUnit,ComanderBoss,300
CommanderUnit,ComanderBoss,300
CommanderUnit,ComanderBoss,300
CommanderUnit,ComanderBoss,300
CommanderUnit,ComanderBoss,300
CommanderUnit,ComanderBoss,300
CommanderUnit,ComanderBoss,300
CommanderUnit,ComanderBoss,300
CommanderUnit,ComanderBoss,300
CommanderUnit,ComanderBoss,300
CommanderUnit,ComanderBoss,300
CommanderUnit,ComanderBoss,300
CommanderUnit,ComanderBoss,300
CommanderUnit,ComanderBoss,300
CommanderUnit,ComanderBoss,300
CommanderUnit,ComanderBoss,300
CommanderUnit,ComanderBoss,300
CommanderUnit,ComanderBoss,300
CommanderUnit,ComanderBoss,300
CommanderUnit,ComanderBoss,300
CommanderUnit,ComanderBoss,300
CommanderUnit,ComanderBoss,300
CommanderUnit,ComanderBoss,300
CommanderUnit,ComanderBoss,300
CommanderUnit,ComanderBoss,300
CommanderUnit,ComanderBoss,300
CommanderUnit,ComanderBoss,300
CommanderUnit,ComanderBoss,300
CommanderUnit,ComanderBoss,300
CommanderUnit,ComanderBoss,300
CommanderUnit,ComanderBoss,300
CommanderUnit,ComanderBoss,300
CommanderUnit,ComanderBoss,300
CommanderUnit,ComanderBoss,300
CommanderUnit,ComanderBoss,300
CommanderUnit,ComanderBoss,300
CommanderUnit,ComanderBoss,300
CommanderUnit,ComanderBoss,300
CommanderUnit,ComanderBoss,300
CommanderUnit,ComanderBoss,300
CommanderUnit,ComanderBoss,300
CommanderUnit,ComanderBoss,300
CommanderUnit,ComanderBoss,300
CommanderUnit,ComanderBoss,300
CommanderUnit,ComanderBoss,300
CommanderUnit,ComanderBoss,300
CommanderUnit,ComanderBoss,300
CommanderUnit,ComanderBoss,300
CommanderUnit,ComanderBoss,300
CommanderUnit,ComanderBoss,300
CommanderUnit,ComanderBoss,300
CommanderUnit,ComanderBoss,300
CommanderUnit,ComanderBoss,300
CommanderUnit,ComanderBoss,300
CommanderUnit,ComanderBoss,300
CommanderUnit,ComanderBoss,300
CommanderUnit,ComanderBoss,300
CommanderUnit,ComanderBoss,300
CommanderUnit,ComanderBoss,300
CommanderUnit,ComanderBoss,300
CommanderUnit,ComanderBoss,300
CommanderUnit,ComanderBoss,300
CommanderUnit,ComanderBoss,300
CommanderUnit,ComanderBoss,300
CommanderUnit,ComanderBoss,300
CommanderUnit,ComanderBoss,300
CommanderUnit,ComanderBoss,300
CommanderUnit,ComanderBoss,300
CommanderUnit,ComanderBoss,300
CommanderUnit,ComanderBoss,300
CommanderUnit,ComanderBoss,300
CommanderUnit,ComanderBoss,300
CommanderUnit,ComanderBoss,300
CommanderUnit,ComanderBoss,300
CommanderUnit,ComanderBoss,300
CommanderUnit,ComanderBoss,300
CommanderUnit,ComanderBoss,300
CommanderUnit,ComanderBoss,300
CommanderUnit,ComanderBoss,300
CommanderUnit,ComanderBoss,300
CommanderUnit,ComanderBoss,300
CommanderUnit,ComanderBoss,300
CommanderUnit,ComanderBoss,300
CommanderUnit,ComanderBoss,300
CommanderUnit,ComanderBoss,300
CommanderUnit,ComanderBoss,300
CommanderUnit,ComanderBoss,300
CommanderUnit,ComanderBoss,300
CommanderUnit,ComanderBoss,300
CommanderUnit,ComanderBoss,300
CommanderUnit,ComanderBoss,300
CommanderUnit,ComanderBoss,300
CommanderUnit,ComanderBoss,300
CommanderUnit,ComanderBoss,300
CommanderUnit,ComanderBoss,300
CommanderUnit,ComanderBoss,300
CommanderUnit,ComanderBoss,300
CommanderUnit,ComanderBoss,300
CommanderUnit,ComanderBoss,300
CommanderUnit,ComanderBoss,300
CommanderUnit,ComanderBoss,300
CommanderUnit,ComanderBoss,300
CommanderUnit,ComanderBoss,300
CommanderUnit,ComanderBoss,300
CommanderUnit,ComanderBoss,300
CommanderUnit,ComanderBoss,300
CommanderUnit,ComanderBoss,300
CommanderUnit,ComanderBoss,300
CommanderUnit,ComanderBoss,300
CommanderUnit,ComanderBoss,300
CommanderUnit,ComanderBoss,300
CommanderUnit,ComanderBoss,300
CommanderUnit,ComanderBoss,300
CommanderUnit,ComanderBoss,300
CommanderUnit,ComanderBoss,300
CommanderUnit,ComanderBoss,300
CommanderUnit,ComanderBoss,300
CommanderUnit,ComanderBoss,300
CommanderUnit,ComanderBoss,300
CommanderUnit,ComanderBoss,300
CommanderUnit,ComanderBoss,300
CommanderUnit,ComanderBoss,300
CommanderUnit,ComanderBoss,300
CommanderUnit,ComanderBoss,300
CommanderUnit,ComanderBoss,300
CommanderUnit,ComanderBoss,300
CommanderUnit,ComanderBoss,300
CommanderUnit,ComanderBoss,300
CommanderUnit,ComanderBoss,300
CommanderUnit,ComanderBoss,300
CommanderUnit,ComanderBoss,300
CommanderUnit,ComanderBoss,300
CommanderUnit,ComanderBoss,300
CommanderUnit,ComanderBoss,300
CommanderUnit,ComanderBoss,300
CommanderUnit,ComanderBoss,300
CommanderUnit,ComanderBoss,300
CommanderUnit,ComanderBoss,300
CommanderUnit,ComanderBoss,300
CommanderUnit,ComanderBoss,300
CommanderUnit,ComanderBoss,300
CommanderUnit,ComanderBoss,300
CommanderUnit,ComanderBoss,300
CommanderUnit,ComanderBoss,300
CommanderUnit,ComanderBoss,300
CommanderUnit,ComanderBoss,300
CommanderUnit,ComanderBoss,300
CommanderUnit,ComanderBoss,300
CommanderUnit,ComanderBoss,300
CommanderUnit,ComanderBoss,300
CommanderUnit,ComanderBoss,300
CommanderUnit,ComanderBoss,300
CommanderUnit,ComanderBoss,300
CommanderUnit,ComanderBoss,300
CommanderUnit,ComanderBoss,300
CommanderUnit,ComanderBoss,300
CommanderUnit,ComanderBoss,300
CommanderUnit,ComanderBoss,300
CommanderUnit,ComanderBoss,300
CommanderUnit,ComanderBoss,300
CommanderUnit,ComanderBoss,300
CommanderUnit,ComanderBoss,300
CommanderUnit,ComanderBoss,300
CommanderUnit,ComanderBoss,300
CommanderUnit,ComanderBoss,300
CommanderUnit,ComanderBoss,300
CommanderUnit,ComanderBoss,300
CommanderUnit,ComanderBoss,300
CommanderUnit,ComanderBoss,300
CommanderUnit,ComanderBoss,300
CommanderUnit,ComanderBoss,300
CommanderUnit,ComanderBoss,300
CommanderUnit,ComanderBoss,300
CommanderUnit,ComanderBoss,300
CommanderUnit,ComanderBoss,300
CommanderUnit,ComanderBoss,300
CommanderUnit,ComanderBoss,300
CommanderUnit,ComanderBoss,300
CommanderUnit,ComanderBoss,300
CommanderUnit,ComanderBoss,300
CommanderUnit,ComanderBoss,300
CommanderUnit,ComanderBoss,300
CommanderUnit,ComanderBoss,300
CommanderUnit,ComanderBoss,300
CommanderUnit,ComanderBoss,300
CommanderUnit,ComanderBoss,300
CommanderUnit,ComanderBoss,300
CommanderUnit,ComanderBoss,300
CommanderUnit,ComanderBoss,300
CommanderUnit,ComanderBoss,300
CommanderUnit,ComanderBoss,300
CommanderUnit,ComanderBoss,300
CommanderUnit,ComanderBoss,300
CommanderUnit,ComanderBoss,300
CommanderUnit,ComanderBoss,300
CommanderUnit,ComanderBoss,300
CommanderUnit,ComanderBoss,300
CommanderUnit,ComanderBoss,300
CommanderUnit,ComanderBoss,300
CommanderUnit,ComanderBoss,300
CommanderUnit,ComanderBoss,300
CommanderUnit,ComanderBoss,300
CommanderUnit,ComanderBoss,300
CommanderUnit,ComanderBoss,300
CommanderUnit,ComanderBoss,300
CommanderUnit,ComanderBoss,300
CommanderUnit,ComanderBoss,300
CommanderUnit,ComanderBoss,300
CommanderUnit,ComanderBoss,300
CommanderUnit,ComanderBoss,300
CommanderUnit,ComanderBoss,300
CommanderUnit,ComanderBoss,300
CommanderUnit,ComanderBoss,300
CommanderUnit,ComanderBoss,300
CommanderUnit,ComanderBoss,300
CommanderUnit,ComanderBoss,300
CommanderUnit,ComanderBoss,300
CommanderUnit,ComanderBoss,300
CommanderUnit,ComanderBoss,300
CommanderUnit,ComanderBoss,300
CommanderUnit,ComanderBoss,300
CommanderUnit,ComanderBoss,300
CommanderUnit,ComanderBoss,300
CommanderUnit,ComanderBoss,300
CommanderUnit,ComanderBoss,300
CommanderUnit,ComanderBoss,300
CommanderUnit,ComanderBoss,300
CommanderUnit,ComanderBoss,300
CommanderUnit,ComanderBoss,300
CommanderUnit,ComanderBoss,300
CommanderUnit,ComanderBoss,300
CommanderUnit,ComanderBoss,300
CommanderUnit,ComanderBoss,300
CommanderUnit,ComanderBoss,300
CommanderUnit,ComanderBoss,300
CommanderUnit,ComanderBoss,300
CommanderUnit,ComanderBoss,300
CommanderUnit,ComanderBoss,300
CommanderUnit,ComanderBoss,300
CommanderUnit,ComanderBoss,300
CommanderUnit,ComanderBoss,300
CommanderUnit,ComanderBoss,300
CommanderUnit,ComanderBoss,300
CommanderUnit,ComanderBoss,300
CommanderUnit,ComanderBoss,300
CommanderUnit,ComanderBoss,300
CommanderUnit,ComanderBoss,300
CommanderUnit,ComanderBoss,300
CommanderUnit,ComanderBoss,300
CommanderUnit,ComanderBoss,300
CommanderUnit,ComanderBoss,300
CommanderUnit,ComanderBoss,300
CommanderUnit,ComanderBoss,300
CommanderUnit,ComanderBoss,300
CommanderUnit,ComanderBoss,300
CommanderUnit,ComanderBoss,300
CommanderUnit,ComanderBoss,300
CommanderUnit,ComanderBoss,300
CommanderUnit,ComanderBoss,300
CommanderUnit,ComanderBoss,300
CommanderUnit,ComanderBoss,300
CommanderUnit,ComanderBoss,300
CommanderUnit,ComanderBoss,300
CommanderUnit,ComanderBoss,300
CommanderUnit,ComanderBoss,300
CommanderUnit,ComanderBoss,300
CommanderUnit,ComanderBoss,300
CommanderUnit,ComanderBoss,300
CommanderUnit,ComanderBoss,300
CommanderUnit,ComanderBoss,300
CommanderUnit,ComanderBoss,300
CommanderUnit,ComanderBoss,300
CommanderUnit,ComanderBoss,300
CommanderUnit,ComanderBoss,300
CommanderUnit,ComanderBoss,300
CommanderUnit,ComanderBoss,300
CommanderUnit,ComanderBoss,300
CommanderUnit,ComanderBoss,300
CommanderUnit,ComanderBoss,300
CommanderUnit,ComanderBoss,300
CommanderUnit,ComanderBoss,300
CommanderUnit,ComanderBoss,300
CommanderUnit,ComanderBoss,300
CommanderUnit,ComanderBoss,300
CommanderUnit,ComanderBoss,300
CommanderUnit,ComanderBoss,300
CommanderUnit,ComanderBoss,300
CommanderUnit,ComanderBoss,300
CommanderUnit,ComanderBoss,300
CommanderUnit,ComanderBoss,300
CommanderUnit,ComanderBoss,300
CommanderUnit,ComanderBoss,300
CommanderUnit,ComanderBoss,300
CommanderUnit,ComanderBoss,300
CommanderUnit,ComanderBoss,300
CommanderUnit,ComanderBoss,300
CommanderUnit,ComanderBoss,300
CommanderUnit,ComanderBoss,300
CommanderUnit,ComanderBoss,300
CommanderUnit,ComanderBoss,300
CommanderUnit,ComanderBoss,300
CommanderUnit,ComanderBoss,300
CommanderUnit,ComanderBoss,300
CommanderUnit,ComanderBoss,300
CommanderUnit,ComanderBoss,300
CommanderUnit,ComanderBoss,300
CommanderUnit,ComanderBoss,300
CommanderUnit,ComanderBoss,300
CommanderUnit,ComanderBoss,300
CommanderUnit,ComanderBoss,300
CommanderUnit,ComanderBoss,300
CommanderUnit,ComanderBoss,300
CommanderUnit,ComanderBoss,300
CommanderUnit,ComanderBoss,300
CommanderUnit,ComanderBoss,300
CommanderUnit,ComanderBoss,300
CommanderUnit,ComanderBoss,300
CommanderUnit,ComanderBoss,300
CommanderUnit,ComanderBoss,300
CommanderUnit,ComanderBoss,300
CommanderUnit,ComanderBoss,300
CommanderUnit,ComanderBoss,300
CommanderUnit,ComanderBoss,300
CommanderUnit,ComanderBoss,300
CommanderUnit,ComanderBoss,300
CommanderUnit,ComanderBoss,300
CommanderUnit,ComanderBoss,300
CommanderUnit,ComanderBoss,300
CommanderUnit,ComanderBoss,300
CommanderUnit,ComanderBoss,300
CommanderUnit,ComanderBoss,300
CommanderUnit,ComanderBoss,300
CommanderUnit,ComanderBoss,300
CommanderUnit,ComanderBoss,300
CommanderUnit,ComanderBoss,300
CommanderUnit,ComanderBoss,300
CommanderUnit,ComanderBoss,300
CommanderUnit,ComanderBoss,300
CommanderUnit,ComanderBoss,300
CommanderUnit,ComanderBoss,300
CommanderUnit,ComanderBoss,300
CommanderUnit,ComanderBoss,300
CommanderUnit,ComanderBoss,300
CommanderUnit,ComanderBoss,300
CommanderUnit,ComanderBoss,300
CommanderUnit,ComanderBoss,300
CommanderUnit,ComanderBoss,300
CommanderUnit,ComanderBoss,300
CommanderUnit,ComanderBoss,300
CommanderUnit,ComanderBoss,300
CommanderUnit,ComanderBoss,300
CommanderUnit,ComanderBoss,300
CommanderUnit,ComanderBoss,300
CommanderUnit,ComanderBoss,300
CommanderUnit,ComanderBoss,300
CommanderUnit,ComanderBoss,300
CommanderUnit,ComanderBoss,300
CommanderUnit,ComanderBoss,300
CommanderUnit,ComanderBoss,300
CommanderUnit,ComanderBoss,300
CommanderUnit,ComanderBoss,300
CommanderUnit,ComanderBoss,300
CommanderUnit,ComanderBoss,300
CommanderUnit,ComanderBoss,300
CommanderUnit,ComanderBoss,300
CommanderUnit,ComanderBoss,300
CommanderUnit,ComanderBoss,300
CommanderUnit,ComanderBoss,300
CommanderUnit,ComanderBoss,300
CommanderUnit,ComanderBoss,300
CommanderUnit,ComanderBoss,300
CommanderUnit,ComanderBoss,300
CommanderUnit,ComanderBoss,300
CommanderUnit,ComanderBoss,300
CommanderUnit,ComanderBoss,300
CommanderUnit,ComanderBoss,300
CommanderUnit,ComanderBoss,300
CommanderUnit,ComanderBoss,300
CommanderUnit,ComanderBoss,300
CommanderUnit,ComanderBoss,300
CommanderUnit,ComanderBoss,300
CommanderUnit,ComanderBoss,300
CommanderUnit,ComanderBoss,300
CommanderUnit,ComanderBoss,300
CommanderUnit,ComanderBoss,300
CommanderUnit,ComanderBoss,300
CommanderUnit,ComanderBoss,300
CommanderUnit,ComanderBoss,300
CommanderUnit,ComanderBoss,300
CommanderUnit,ComanderBoss,300
CommanderUnit,ComanderBoss,300
CommanderUnit,ComanderBoss,300
CommanderUnit,ComanderBoss,300
CommanderUnit,ComanderBoss,300
CommanderUnit,ComanderBoss,300
CommanderUnit,ComanderBoss,300
CommanderUnit,ComanderBoss,300
CommanderUnit,ComanderBoss,300
CommanderUnit,ComanderBoss,300
CommanderUnit,ComanderBoss,300
CommanderUnit,ComanderBoss,300
CommanderUnit,ComanderBoss,300
CommanderUnit,ComanderBoss,300
CommanderUnit,ComanderBoss,300
CommanderUnit,ComanderBoss,300
CommanderUnit,ComanderBoss,300
CommanderUnit,ComanderBoss,300
CommanderUnit,ComanderBoss,300
CommanderUnit,ComanderBoss,300
CommanderUnit,ComanderBoss,300
