Humans
InfantryUnit,Footman 0,100
InfantryUnit,Footman 1,100
InfantryUnit,Footman 2,100
InfantryUnit,Footman 3,100
InfantryUnit,Footman 4,100
InfantryUnit,Footman 5,100
InfantryUnit,Footman 6,100
InfantryUnit,Footman 7,100
InfantryUnit,Footman 8,100
InfantryUnit,Footman 9,100
InfantryUnit,Footman 10,100
InfantryUnit,Footman 11,100
InfantryUnit,Footman 12,100
InfantryUnit,Footman 13,100
InfantryUnit,Footman 14,100
InfantryUnit,Footman 15,100
InfantryUnit,Footman 16,100
InfantryUnit,Footman 17,100
InfantryUnit,Footman 18,100
InfantryUnit,Footman 19,100
InfantryUnit,Footman 20,100
InfantryUnit,Footman 21,100
InfantryUnit,Footman 22,100
InfantryUnit,Footman 23,100
InfantryUnit,Footman 24,100
InfantryUnit,Footman 25,100
InfantryUnit,Footman 26,100
InfantryUnit,Footman 27,100
InfantryUnit,Footman 28,100
InfantryUnit,Footman 29,100
InfantryUnit,Footman 30,100
InfantryUnit,Footman 31,100
InfantryUnit,Footman 32,100
InfantryUnit,Footman 33,100
InfantryUnit,Footman 34,100
InfantryUnit,Footman 35,100
InfantryUnit,Footman 36,100
InfantryUnit,Footman 37,100
InfantryUnit,Footman 38,100
InfantryUnit,Footman 39,100
InfantryUnit,Footman 40,100
InfantryUnit,Footman 41,100
InfantryUnit,Footman 42,100
InfantryUnit,Footman 43,100
InfantryUnit,Footman 44,100
InfantryUnit,Footman 45,100
InfantryUnit,Footman 46,100
InfantryUnit,Footman 47,100
InfantryUnit,Footman 48,100
InfantryUnit,Footman 49,100
InfantryUnit,Footman 50,100
InfantryUnit,Footman 51,100
InfantryUnit,Footman 52,100
InfantryUnit,Footman 53,100
InfantryUnit,Footman 54,100
InfantryUnit,Footman 55,100
InfantryUnit,Footman 56,100
InfantryUnit,Footman 57,100
InfantryUnit,Footman 58,100
InfantryUnit,Footman 59,100
InfantryUnit,Footman 60,100
InfantryUnit,Footman 61,100
InfantryUnit,Footman 62,100
InfantryUnit,Footman 63,100
InfantryUnit,Footman 64,100
InfantryUnit,Footman 65,100
InfantryUnit,Footman 66,100
InfantryUnit,Footman 67,100
InfantryUnit,Footman 68,100
InfantryUnit,Footman 69,100
InfantryUnit,Footman 70,100
InfantryUnit,Footman 71,100
InfantryUnit,Footman 72,100
InfantryUnit,Footman 73,100
InfantryUnit,Footman 74,100
InfantryUnit,Footman 75,100
InfantryUnit,Footman 76,100
InfantryUnit,Footman 77,100
InfantryUnit,Footman 78,100
InfantryUnit,Footman 79,100
InfantryUnit,Footman 80,100
InfantryUnit,Footman 81,100
InfantryUnit,Footman 82,100
InfantryUnit,Footman 83,100
InfantryUnit,Footman 84,100
InfantryUnit,Footman 85,100
InfantryUnit,Footman 86,100
InfantryUnit,Footman 87,100
InfantryUnit,Footman 88,100
InfantryUnit,Footman 89,100
InfantryUnit,Footman 90,100
InfantryUnit,Footman 91,100
InfantryUnit,Footman 92,100
InfantryUnit,Footman 93,100
InfantryUnit,Footman 94,100
InfantryUnit,Footman 95,100
InfantryUnit,Footman 96,100
InfantryUnit,Footman 97,100
InfantryUnit,Footman 98,100
InfantryUnit,Footman 99,100
InfantryUnit,Footman 100,100
InfantryUnit,Footman 101,100
InfantryUnit,Footman 102,100
InfantryUnit,Footman 103,100
InfantryUnit,Footman 104,100
InfantryUnit,Footman 105,100
InfantryUnit,Footman 106,100
InfantryUnit,Footman 107,100
InfantryUnit,Footman 108,100
InfantryUnit,Footman 109,100
InfantryUnit,Footman 110,100
InfantryUnit,Footman 111,100
InfantryUnit,Footman 112,100
InfantryUnit,Footman 113,100
InfantryUnit,Footman 114,100
InfantryUnit,Footman 115,100
InfantryUnit,Footman 116,100
InfantryUnit,Footman 117,100
InfantryUnit,Footman 118,100
InfantryUnit,Footman 119,100
InfantryUnit,Footman 120,100
InfantryUnit,Footman 121,100
InfantryUnit,Footman 122,100
InfantryUnit,Footman 123,100
InfantryUnit,Footman 124,100
InfantryUnit,Footman 125,100
InfantryUnit,Footman 126,100
InfantryUnit,Footman 127,100
InfantryUnit,Footman 128,100
InfantryUnit,Footman 129,100
InfantryUnit,Footman 130,100
InfantryUnit,Footman 131,100
InfantryUnit,Footman 132,100
InfantryUnit,Footman 133,100
InfantryUnit,Footman 134,100
InfantryUnit,Footman 135,100
InfantryUnit,Footman 136,100
InfantryUnit,Footman 137,100
InfantryUnit,Footman 138,100
InfantryUnit,Footman 139,100
InfantryUnit,Footman 140,100
InfantryUnit,Footman 141,100
InfantryUnit,Footman 142,100
InfantryUnit,Footman 143,100
InfantryUnit,Footman 144,100
InfantryUnit,Footman 145,100
InfantryUnit,Footman 146,100
InfantryUnit,Footman 147,100
InfantryUnit,Footman 148,100
InfantryUnit,Footman 149,100
InfantryUnit,Footman 150,100
InfantryUnit,Footman 151,100
InfantryUnit,Footman 152,100
InfantryUnit,Footman 153,100
InfantryUnit,Footman 154,100
InfantryUnit,Footman 155,100
InfantryUnit,Footman 156,100
InfantryUnit,Footman 157,100
InfantryUnit,Footman 158,100
InfantryUnit,Footman 159,100
InfantryUnit,Footman 160,100
InfantryUnit,Footman 161,100
InfantryUnit,Footman 162,100
InfantryUnit,Footman 163,100
InfantryUnit,Footman 164,100
InfantryUnit,Footman 165,100
InfantryUnit,Footman 166,100
InfantryUnit,Footman 167,100
InfantryUnit,Footman 168,100
InfantryUnit,Footman 169,100
InfantryUnit,Footman 170,100
InfantryUnit,Footman 171,100
InfantryUnit,Footman 172,100
InfantryUnit,Footman 173,100
InfantryUnit,Footman 174,100
InfantryUnit,Footman 175,100
InfantryUnit,Footman 176,100
InfantryUnit,Footman 177,100
InfantryUnit,Footman 178,100
InfantryUnit,Footman 179,100
InfantryUnit,Footman 180,100
InfantryUnit,Footman 181,100
InfantryUnit,Footman 182,100
InfantryUnit,Footman 183,100
InfantryUnit,Footman 184,100
InfantryUnit,Footman 185,100
InfantryUnit,Footman 186,100
InfantryUnit,Footman 187,100
InfantryUnit,Footman 188,100
InfantryUnit,Footman 189,100
InfantryUnit,Footman 190,100
InfantryUnit,Footman 191,100
InfantryUnit,Footman 192,100
InfantryUnit,Footman 193,100
InfantryUnit,Footman 194,100
InfantryUnit,Footman 195,100
InfantryUnit,Footman 196,100
InfantryUnit,Footman 197,100
InfantryUnit,Footman 198,100
InfantryUnit,Footman 199,100
InfantryUnit,Footman 200,100
InfantryUnit,Footman 201,100
InfantryUnit,Footman 202,100
InfantryUnit,Footman 203,100
InfantryUnit,Footman 204,100
InfantryUnit,Footman 205,100
InfantryUnit,Footman 206,100
InfantryUnit,Footman 207,100
InfantryUnit,Footman 208,100
InfantryUnit,Footman 209,100
InfantryUnit,Footman 210,100
InfantryUnit,Footman 211,100
InfantryUnit,Footman 212,100
InfantryUnit,Footman 213,100
InfantryUnit,Footman 214,100
InfantryUnit,Footman 215,100
InfantryUnit,Footman 216,100
InfantryUnit,Footman 217,100
InfantryUnit,Footman 218,100
InfantryUnit,Footman 219,100
InfantryUnit,Footman 220,100
InfantryUnit,Footman 221,100
InfantryUnit,Footman 222,100
InfantryUnit,Footman 223,100
InfantryUnit,Footman 224,100
InfantryUnit,Footman 225,100
InfantryUnit,Footman 226,100
InfantryUnit,Footman 227,100
InfantryUnit,Footman 228,100
InfantryUnit,Footman 229,100
InfantryUnit,Footman 230,100
InfantryUnit,Footman 231,100
InfantryUnit,Footman 232,100
InfantryUnit,Footman 233,100
InfantryUnit,Footman 234,100
InfantryUnit,Footman 235,100
InfantryUnit,Footman 236,100
InfantryUnit,Footman 237,100
InfantryUnit,Footman 238,100
InfantryUnit,Footman 239,100
InfantryUnit,Footman 240,100
InfantryUnit,Footman 241,100
InfantryUnit,Footman 242,100
InfantryUnit,Footman 243,100
InfantryUnit,Footman 244,100
InfantryUnit,Footman 245,100
InfantryUnit,Footman 246,100
InfantryUnit,Footman 247,100
InfantryUnit,Footman 248,100
InfantryUnit,Footman 249,100
InfantryUnit,Footman 250,100
InfantryUnit,Footman 251,100
InfantryUnit,Footman 252,100
InfantryUnit,Footman 253,100
InfantryUnit,Footman 254,100
InfantryUnit,Footman 255,100
InfantryUnit,Footman 256,100
InfantryUnit,Footman 257,100
InfantryUnit,Footman 258,100
InfantryUnit,Footman 259,100
InfantryUnit,Footman 260,100
InfantryUnit,Footman 261,100
InfantryUnit,Footman 262,100
InfantryUnit,Footman 263,100
InfantryUnit,Footman 264,100
InfantryUnit,Footman 265,100
InfantryUnit,Footman 266,100
InfantryUnit,Footman 267,100
InfantryUnit,Footman 268,100
InfantryUnit,Footman 269,100
InfantryUnit,Footman 270,100
InfantryUnit,Footman 271,100
InfantryUnit,Footman 272,100
InfantryUnit,Footman 273,100
InfantryUnit,Footman 274,100
InfantryUnit,Footman 275,100
InfantryUnit,Footman 276,100
InfantryUnit,Footman 277,100
InfantryUnit,Footman 278,100
InfantryUnit,Footman 279,100
InfantryUnit,Footman 280,100
InfantryUnit,Footman 281,100
InfantryUnit,Footman 282,100
InfantryUnit,Footman 283,100
InfantryUnit,Footman 284,100
InfantryUnit,Footman 285,100
InfantryUnit,Footman 286,100
InfantryUnit,Footman 287,100
InfantryUnit,Footman 288,100
InfantryUnit,Footman 289,100
InfantryUnit,Footman 290,100
InfantryUnit,Footman 291,100
InfantryUnit,Footman 292,100
InfantryUnit,Footman 293,100
InfantryUnit,Footman 294,100
InfantryUnit,Footman 295,100
InfantryUnit,Footman 296,100
InfantryUnit,Footman 297,100
InfantryUnit,Footman 298,100
InfantryUnit,Footman 299,100
InfantryUnit,Footman 300,100
InfantryUnit,Footman 301,100
InfantryUnit,Footman 302,100
InfantryUnit,Footman 303,100
InfantryUnit,Footman 304,100
InfantryUnit,Footman 305,100
InfantryUnit,Footman 306,100
InfantryUnit,Footman 307,100
InfantryUnit,Footman 308,100
InfantryUnit,Footman 309,100
InfantryUnit,Footman 310,100
InfantryUnit,Footman 311,100
InfantryUnit,Footman 312,100
InfantryUnit,Footman 313,100
InfantryUnit,Footman 314,100
InfantryUnit,Footman 315,100
InfantryUnit,Footman 316,100
InfantryUnit,Footman 317,100
InfantryUnit,Footman 318,100
InfantryUnit,Footman 319,100
InfantryUnit,Footman 320,100
InfantryUnit,Footman 321,100
InfantryUnit,Footman 322,100
InfantryUnit,Footman 323,100
InfantryUnit,Footman 324,100
InfantryUnit,Footman 325,100
InfantryUnit,Footman 326,100
InfantryUnit,Footman 327,100
InfantryUnit,Footman 328,100
InfantryUnit,Footman 329,100
InfantryUnit,Footman 330,100
InfantryUnit,Footman 331,100
InfantryUnit,Footman 332,100
InfantryUnit,Footman 333,100
InfantryUnit,Footman 334,100
InfantryUnit,Footman 335,100
InfantryUnit,Footman 336,100
InfantryUnit,Footman 337,100
InfantryUnit,Footman 338,100
InfantryUnit,Footman 339,100
InfantryUnit,Footman 340,100
InfantryUnit,Footman 341,100
InfantryUnit,Footman 342,100
InfantryUnit,Footman 343,100
InfantryUnit,Footman 344,100
InfantryUnit,Footman 345,100
InfantryUnit,Footman 346,100
InfantryUnit,Footman 347,100
InfantryUnit,Footman 348,100
InfantryUnit,Footman 349,100
InfantryUnit,Footman 350,100
InfantryUnit,Footman 351,100
InfantryUnit,Footman 352,100
InfantryUnit,Footman 353,100
InfantryUnit,Footman 354,100
InfantryUnit,Footman 355,100
InfantryUnit,Footman 356,100
InfantryUnit,Footman 357,100
InfantryUnit,Footman 358,100
InfantryUnit,Footman 359,100
InfantryUnit,Footman 360,100
InfantryUnit,Footman 361,100
InfantryUnit,Footman 362,100
InfantryUnit,Footman 363,100
InfantryUnit,Footman 364,100
InfantryUnit,Footman 365,100
InfantryUnit,Footman 366,100
InfantryUnit,Footman 367,100
InfantryUnit,Footman 368,100
InfantryUnit,Footman 369,100
InfantryUnit,Footman 370,100
InfantryUnit,Footman 371,100
InfantryUnit,Footman 372,100
InfantryUnit,Footman 373,100
InfantryUnit,Footman 374,100
InfantryUnit,Footman 375,100
InfantryUnit,Footman 376,100
InfantryUnit,Footman 377,100
InfantryUnit,Footman 378,100
InfantryUnit,Footman 379,100
InfantryUnit,Footman 380,100
InfantryUnit,Footman 381,100
InfantryUnit,Footman 382,100
InfantryUnit,Footman 383,100
InfantryUnit,Footman 384,100
InfantryUnit,Footman 385,100
InfantryUnit,Footman 386,100
InfantryUnit,Footman 387,100
InfantryUnit,Footman 388,100
InfantryUnit,Footman 389,100
InfantryUnit,Footman 390,100
InfantryUnit,Footman 391,100
InfantryUnit,Footman 392,100
InfantryUnit,Footman 393,100
InfantryUnit,Footman 394,100
InfantryUnit,Footman 395,100
InfantryUnit,Footman 396,100
InfantryUnit,Footman 397,100
InfantryUnit,Footman 398,100
InfantryUnit,Footman 399,100
InfantryUnit,Footman 400,100
InfantryUnit,Footman 401,100
InfantryUnit,Footman 402,100
InfantryUnit,Footman 403,100
InfantryUnit,Footman 404,100
InfantryUnit,Footman 405,100
InfantryUnit,Footman 406,100
InfantryUnit,Footman 407,100
InfantryUnit,Footman 408,100
InfantryUnit,Footman 409,100
InfantryUnit,Footman 410,100
InfantryUnit,Footman 411,100
InfantryUnit,Footman 412,100
InfantryUnit,Footman 413,100
InfantryUnit,Footman 414,100
InfantryUnit,Footman 415,100
InfantryUnit,Footman 416,100
InfantryUnit,Footman 417,100
InfantryUnit,Footman 418,100
InfantryUnit,Footman 419,100
InfantryUnit,Footman 420,100
InfantryUnit,Footman 421,100
InfantryUnit,Footman 422,100
InfantryUnit,Footman 423,100
InfantryUnit,Footman 424,100
InfantryUnit,Footman 425,100
InfantryUnit,Footman 426,100
InfantryUnit,Footman 427,100
InfantryUnit,Footman 428,100
InfantryUnit,Footman 429,100
InfantryUnit,Footman 430,100
InfantryUnit,Footman 431,100
InfantryUnit,Footman 432,100
InfantryUnit,Footman 433,100
InfantryUnit,Footman 434,100
InfantryUnit,Footman 435,100
InfantryUnit,Footman 436,100
InfantryUnit,Footman 437,100
InfantryUnit,Footman 438,100
InfantryUnit,Footman 439,100
InfantryUnit,Footman 440,100
InfantryUnit,Footman 441,100
InfantryUnit,Footman 442,100
InfantryUnit,Footman 443,100
InfantryUnit,Footman 444,100
InfantryUnit,Footman 445,100
InfantryUnit,Footman 446,100
InfantryUnit,Footman 447,100
InfantryUnit,Footman 448,100
InfantryUnit,Footman 449,100
InfantryUnit,Footman 450,100
InfantryUnit,Footman 451,100
InfantryUnit,Footman 452,100
InfantryUnit,Footman 453,100
InfantryUnit,Footman 454,100
InfantryUnit,Footman 455,100
InfantryUnit,Footman 456,100
InfantryUnit,Footman 457,100
InfantryUnit,Footman 458,100
InfantryUnit,Footman 459,100
InfantryUnit,Footman 460,100
InfantryUnit,Footman 461,100
InfantryUnit,Footman 462,100
InfantryUnit,Footman 463,100
InfantryUnit,Footman 464,100
InfantryUnit,Footman 465,100
InfantryUnit,Footman 466,100
InfantryUnit,Footman 467,100
InfantryUnit,Footman 468,100
InfantryUnit,Footman 469,100
InfantryUnit,Footman 470,100
InfantryUnit,Footman 471,100
InfantryUnit,Footman 472,100
InfantryUnit,Footman 473,100
InfantryUnit,Footman 474,100
InfantryUnit,Footman 475,100
InfantryUnit,Footman 476,100
InfantryUnit,Footman 477,100
InfantryUnit,Footman 478,100
InfantryUnit,Footman 479,100
InfantryUnit,Footman 480,100
InfantryUnit,Footman 481,100
InfantryUnit,Footman 482,100
InfantryUnit,Footman 483,100
InfantryUnit,Footman 484,100
InfantryUnit,Footman 485,100
InfantryUnit,Footman 486,100
InfantryUnit,Footman 487,100
InfantryUnit,Footman 488,100
InfantryUnit,Footman 489,100
InfantryUnit,Footman 490,100
InfantryUnit,Footman 491,100
InfantryUnit,Footman 492,100
InfantryUnit,Footman 493,100
InfantryUnit,Footman 494,100
InfantryUnit,Footman 495,100
InfantryUnit,Footman 496,100
InfantryUnit,Footman 497,100
InfantryUnit,Footman 498,100
InfantryUnit,Footman 499,100
CavalryUnit,Knight 0,100
CavalryUnit,Knight 1,100
CavalryUnit,Knight 2,100
CavalryUnit,Knight 3,100
CavalryUnit,Knight 4,100
CavalryUnit,Knight 5,100
CavalryUnit,Knight 6,100
CavalryUnit,Knight 7,100
CavalryUnit,Knight 8,100
CavalryUnit,Knight 9,100
CavalryUnit,Knight 10,100
CavalryUnit,Knight 11,100
CavalryUnit,Knight 12,100
CavalryUnit,Knight 13,100
CavalryUnit,Knight 14,100
CavalryUnit,Knight 15,100
CavalryUnit,Knight 16,100
CavalryUnit,Knight 17,100
CavalryUnit,Knight 18,100
CavalryUnit,Knight 19,100
CavalryUnit,Knight 20,100
CavalryUnit,Knight 21,100
CavalryUnit,Knight 22,100
CavalryUnit,Knight 23,100
CavalryUnit,Knight 24,100
CavalryUnit,Knight 25,100
CavalryUnit,Knight 26,100
CavalryUnit,Knight 27,100
CavalryUnit,Knight 28,100
CavalryUnit,Knight 29,100
CavalryUnit,Knight 30,100
CavalryUnit,Knight 31,100
CavalryUnit,Knight 32,100
CavalryUnit,Knight 33,100
CavalryUnit,Knight 34,100
CavalryUnit,Knight 35,100
CavalryUnit,Knight 36,100
CavalryUnit,Knight 37,100
CavalryUnit,Knight 38,100
CavalryUnit,Knight 39,100
CavalryUnit,Knight 40,100
CavalryUnit,Knight 41,100
CavalryUnit,Knight 42,100
CavalryUnit,Knight 43,100
CavalryUnit,Knight 44,100
CavalryUnit,Knight 45,100
CavalryUnit,Knight 46,100
CavalryUnit,Knight 47,100
CavalryUnit,Knight 48,100
CavalryUnit,Knight 49,100
CavalryUnit,Knight 50,100
CavalryUnit,Knight 51,100
CavalryUnit,Knight 52,100
CavalryUnit,Knight 53,100
CavalryUnit,Knight 54,100
CavalryUnit,Knight 55,100
CavalryUnit,Knight 56,100
CavalryUnit,Knight 57,100
CavalryUnit,Knight 58,100
CavalryUnit,Knight 59,100
CavalryUnit,Knight 60,100
CavalryUnit,Knight 61,100
CavalryUnit,Knight 62,100
CavalryUnit,Knight 63,100
CavalryUnit,Knight 64,100
CavalryUnit,Knight 65,100
CavalryUnit,Knight 66,100
CavalryUnit,Knight 67,100
CavalryUnit,Knight 68,100
CavalryUnit,Knight 69,100
CavalryUnit,Knight 70,100
CavalryUnit,Knight 71,100
CavalryUnit,Knight 72,100
CavalryUnit,Knight 73,100
CavalryUnit,Knight 74,100
CavalryUnit,Knight 75,100
CavalryUnit,Knight 76,100
CavalryUnit,Knight 77,100
CavalryUnit,Knight 78,100
CavalryUnit,Knight 79,100
CavalryUnit,Knight 80,100
CavalryUnit,Knight 81,100
CavalryUnit,Knight 82,100
CavalryUnit,Knight 83,100
CavalryUnit,Knight 84,100
CavalryUnit,Knight 85,100
CavalryUnit,Knight 86,100
CavalryUnit,Knight 87,100
CavalryUnit,Knight 88,100
CavalryUnit,Knight 89,100
CavalryUnit,Knight 90,100
CavalryUnit,Knight 91,100
CavalryUnit,Knight 92,100
CavalryUnit,Knight 93,100
CavalryUnit,Knight 94,100
CavalryUnit,Knight 95,100
CavalryUnit,Knight 96,100
CavalryUnit,Knight 97,100
CavalryUnit,Knight 98,100
CavalryUnit,Knight 99,100
RangedUnit,Archer 0,100
RangedUnit,Archer 1,100
RangedUnit,Archer 2,100
RangedUnit,Archer 3,100
RangedUnit,Archer 4,100
RangedUnit,Archer 5,100
RangedUnit,Archer 6,100
RangedUnit,Archer 7,100
RangedUnit,Archer 8,100
RangedUnit,Archer 9,100
RangedUnit,Archer 10,100
RangedUnit,Archer 11,100
RangedUnit,Archer 12,100
RangedUnit,Archer 13,100
RangedUnit,Archer 14,100
RangedUnit,Archer 15,100
RangedUnit,Archer 16,100
RangedUnit,Archer 17,100
RangedUnit,Archer 18,100
RangedUnit,Archer 19,100
RangedUnit,Archer 20,100
RangedUnit,Archer 21,100
RangedUnit,Archer 22,100
RangedUnit,Archer 23,100
RangedUnit,Archer 24,100
RangedUnit,Archer 25,100
RangedUnit,Archer 26,100
RangedUnit,Archer 27,100
RangedUnit,Archer 28,100
RangedUnit,Archer 29,100
RangedUnit,Archer 30,100
RangedUnit,Archer 31,100
RangedUnit,Archer 32,100
RangedUnit,Archer 33,100
RangedUnit,Archer 34,100
RangedUnit,Archer 35,100
RangedUnit,Archer 36,100
RangedUnit,Archer 37,100
RangedUnit,Archer 38,100
RangedUnit,Archer 39,100
RangedUnit,Archer 40,100
RangedUnit,Archer 41,100
RangedUnit,Archer 42,100
RangedUnit,Archer 43,100
RangedUnit,Archer 44,100
RangedUnit,Archer 45,100
RangedUnit,Archer 46,100
RangedUnit,Archer 47,100
RangedUnit,Archer 48,100
RangedUnit,Archer 49,100
RangedUnit,Archer 50,100
RangedUnit,Archer 51,100
RangedUnit,Archer 52,100
RangedUnit,Archer 53,100
RangedUnit,Archer 54,100
RangedUnit,Archer 55,100
RangedUnit,Archer 56,100
RangedUnit,Archer 57,100
RangedUnit,Archer 58,100
RangedUnit,Archer 59,100
RangedUnit,Archer 60,100
RangedUnit,Archer 61,100
RangedUnit,Archer 62,100
RangedUnit,Archer 63,100
RangedUnit,Archer 64,100
RangedUnit,Archer 65,100
RangedUnit,Archer 66,100
RangedUnit,Archer 67,100
RangedUnit,Archer 68,100
RangedUnit,Archer 69,100
RangedUnit,Archer 70,100
RangedUnit,Archer 71,100
RangedUnit,Archer 72,100
RangedUnit,Archer 73,100
RangedUnit,Archer 74,100
RangedUnit,Archer 75,100
RangedUnit,Archer 76,100
RangedUnit,Archer 77,100
RangedUnit,Archer 78,100
RangedUnit,Archer 79,100
RangedUnit,Archer 80,100
RangedUnit,Archer 81,100
RangedUnit,Archer 82,100
RangedUnit,Archer 83,100
RangedUnit,Archer 84,100
RangedUnit,Archer 85,100
RangedUnit,Archer 86,100
RangedUnit,Archer 87,100
RangedUnit,Archer 88,100
RangedUnit,Archer 89,100
RangedUnit,Archer 90,100
RangedUnit,Archer 91,100
RangedUnit,Archer 92,100
RangedUnit,Archer 93,100
RangedUnit,Archer 94,100
RangedUnit,Archer 95,100
RangedUnit,Archer 96,100
RangedUnit,Archer 97,100
RangedUnit,Archer 98,100
RangedUnit,Archer 99,100
RangedUnit,Archer 100,100
RangedUnit,Archer 101,100
RangedUnit,Archer 102,100
RangedUnit,Archer 103,100
RangedUnit,Archer 104,100
RangedUnit,Archer 105,100
RangedUnit,Archer 106,100
RangedUnit,Archer 107,100
RangedUnit,Archer 108,100
RangedUnit,Archer 109,100
RangedUnit,Archer 110,100
RangedUnit,Archer 111,100
RangedUnit,Archer 112,100
RangedUnit,Archer 113,100
RangedUnit,Archer 114,100
RangedUnit,Archer 115,100
RangedUnit,Archer 116,100
RangedUnit,Archer 117,100
RangedUnit,Archer 118,100
RangedUnit,Archer 119,100
RangedUnit,Archer 120,100
RangedUnit,Archer 121,100
RangedUnit,Archer 122,100
RangedUnit,Archer 123,100
RangedUnit,Archer 124,100
RangedUnit,Archer 125,100
RangedUnit,Archer 126,100
RangedUnit,Archer 127,100
RangedUnit,Archer 128,100
RangedUnit,Archer 129,100
RangedUnit,Archer 130,100
RangedUnit,Archer 131,100
RangedUnit,Archer 132,100
RangedUnit,Archer 133,100
RangedUnit,Archer 134,100
RangedUnit,Archer 135,100
RangedUnit,Archer 136,100
RangedUnit,Archer 137,100
RangedUnit,Archer 138,100
RangedUnit,Archer 139,100
RangedUnit,Archer 140,100
RangedUnit,Archer 141,100
RangedUnit,Archer 142,100
RangedUnit,Archer 143,100
RangedUnit,Archer 144,100
RangedUnit,Archer 145,100
RangedUnit,Archer 146,100
RangedUnit,Archer 147,100
RangedUnit,Archer 148,100
RangedUnit,Archer 149,100
RangedUnit,Archer 150,100
RangedUnit,Archer 151,100
RangedUnit,Archer 152,100
RangedUnit,Archer 153,100
RangedUnit,Archer 154,100
RangedUnit,Archer 155,100
RangedUnit,Archer 156,100
RangedUnit,Archer 157,100
RangedUnit,Archer 158,100
RangedUnit,Archer 159,100
RangedUnit,Archer 160,100
RangedUnit,Archer 161,100
RangedUnit,Archer 162,100
RangedUnit,Archer 163,100
RangedUnit,Archer 164,100
RangedUnit,Archer 165,100
RangedUnit,Archer 166,100
RangedUnit,Archer 167,100
RangedUnit,Archer 168,100
RangedUnit,Archer 169,100
RangedUnit,Archer 170,100
RangedUnit,Archer 171,100
RangedUnit,Archer 172,100
RangedUnit,Archer 173,100
RangedUnit,Archer 174,100
RangedUnit,Archer 175,100
RangedUnit,Archer 176,100
RangedUnit,Archer 177,100
RangedUnit,Archer 178,100
RangedUnit,Archer 179,100
RangedUnit,Archer 180,100
RangedUnit,Archer 181,100
RangedUnit,Archer 182,100
RangedUnit,Archer 183,100
RangedUnit,Archer 184,100
RangedUnit,Archer 185,100
RangedUnit,Archer 186,100
RangedUnit,Archer 187,100
RangedUnit,Archer 188,100
RangedUnit,Archer 189,100
RangedUnit,Archer 190,100
RangedUnit,Archer 191,100
RangedUnit,Archer 192,100
RangedUnit,Archer 193,100
RangedUnit,Archer 194,100
RangedUnit,Archer 195,100
RangedUnit,Archer 196,100
RangedUnit,Archer 197,100
RangedUnit,Archer 198,100
RangedUnit,Archer 199,100
CommanderUnit,Mountain King,180
